…
reporte_por_rol <- reporte_por_rol %>%
  mutate(
    num_actores = ifelse(is.na(num_actores), 0, num_actores),
    num_actrices = ifelse(is.na(num_actrices), 0, num_actrices),
    num_directores = ifelse(is.na(num_directores), 0, num_directores)
  )

print(reporte_por_rol)
```

    ## # A tibble: 1,174,675 × 5
    ##    role                    num_peliculas num_actores num_actrices num_directores
    ##    <chr>                           <int>       <dbl>        <dbl>          <int>
    ##  1 ""                             164782      189465       115354          37702
    ##  2 " (1985)"                           1           1            0              1
    ##  3 " (1991 reissue only)"              1           0            1              1
    ##  4 " (episode \"Protest u…             1           3            0              1
    ##  5 " (episode 4: The Crim…             1           0            1              1
    ##  6 " (episode Målbrott)"               1           3            0              1
    ##  7 " (episode one)"                    1           4            0              1
    ##  8 " (episode two)"                    1           2            0              1
    ##  9 " (segment \"A Boca\")"             1           2            0              1
    ## 10 " (segment \"A Suspeit…             1           1            0              1
    ## # ℹ 1,174,665 more rows
…
``` r
dist_roles_combined <- full_join(dist_roles_pelicula, dist_roles_director, by = "n_roles") %>%
  arrange(n_roles)

dist_roles_combined <- dist_roles_combined %>%
  mutate(
    n_movies = ifelse(is.na(n_movies), 0, n_movies),
    n_directors = ifelse(is.na(n_directors), 0, n_directors)
  )

print(dist_roles_combined)
```

    ## # A tibble: 1,118 × 3
    ##    n_roles n_movies n_directors
    ##      <int>    <dbl>       <int>
    ##  1       1   112552       27248
    ##  2       2    26293        7687
    ##  3       3    15283        4499
    ##  4       4    11835        3316
    ##  5       5    11508        2892
    ##  6       6    10476        2420
    ##  7       7    10043        2006
    ##  8       8     9435        1789
    ##  9       9     8723        1722
    ## 10      10     8044        1676
    ## # ℹ 1,108 more rows
